<?xml version="1.0" standalone="no"?>
<!DOCTYPE svg PUBLIC "-//W3C//DTD SVG 20010904//EN"
 "http://www.w3.org/TR/2001/REC-SVG-20010904/DTD/svg10.dtd">
<svg version="1.0" xmlns="http://www.w3.org/2000/svg"
 width="99.000000pt" height="99.000000pt" viewBox="0 0 99.000000 99.000000"
 preserveAspectRatio="xMidYMid meet">
<metadata>
Created by potrace 1.11, written by Peter Selinger 2001-2013
</metadata>
<g transform="translate(0.000000,99.000000) scale(0.100000,-0.100000)"
fill="#000000" stroke="none">
<path d="M299 969 c-96 -8 -157 -37 -214 -103 -68 -76 -76 -119 -77 -363 0
-114 3 -224 7 -243 9 -52 38 -111 71 -145 32 -33 94 -80 94 -70 0 3 12 -3 27
-12 24 -16 55 -18 288 -18 250 1 262 2 312 24 61 27 126 93 156 159 20 44 22
62 21 297 l0 250 -27 53 c-15 28 -32 52 -38 52 -5 0 -8 4 -5 9 12 18 -106 97
-126 85 -6 -4 -8 -3 -4 4 4 7 -9 13 -36 17 -62 8 -359 11 -449 4z"/>
</g>
</svg>
